%YAML 1.1
%TAG !u! tag:unity3d.com,2011:
--- !u!50 &6927807714968639574
Rigidbody2D:
  serializedVersion: 4
  m_ObjectHideFlags: 0
  m_CorrespondingSourceObject: {fileID: 0}
  m_PrefabInstance: {fileID: 0}
  m_PrefabAsset: {fileID: 0}
  m_GameObject: {fileID: 3226676296777167193}
  m_BodyType: 0
  m_Simulated: 1
  m_UseFullKinematicContacts: 0
  m_UseAutoMass: 0
  m_Mass: 1
  m_LinearDrag: 0
  m_AngularDrag: 0.05
  m_GravityScale: 0
  m_Material: {fileID: 0}
  m_Interpolate: 0
  m_SleepingMode: 1
  m_CollisionDetection: 0
  m_Constraints: 0
--- !u!50 &637289283271891341
Rigidbody2D:
  serializedVersion: 4
  m_ObjectHideFlags: 0
  m_CorrespondingSourceObject: {fileID: 0}
  m_PrefabInstance: {fileID: 0}
  m_PrefabAsset: {fileID: 0}
  m_GameObject: {fileID: 3226676298570576009}
  m_BodyType: 0
  m_Simulated: 1
  m_UseFullKinematicContacts: 0
  m_UseAutoMass: 0
  m_Mass: 1
  m_LinearDrag: 0
  m_AngularDrag: 0.05
  m_GravityScale: 0
  m_Material: {fileID: 0}
  m_Interpolate: 0
  m_SleepingMode: 1
  m_CollisionDetection: 0
  m_Constraints: 0
--- !u!50 &7218854626627966154
Rigidbody2D:
  serializedVersion: 4
  m_ObjectHideFlags: 0
  m_CorrespondingSourceObject: {fileID: 0}
  m_PrefabInstance: {fileID: 0}
  m_PrefabAsset: {fileID: 0}
  m_GameObject: {fileID: 3226676298514442951}
  m_BodyType: 0
  m_Simulated: 1
  m_UseFullKinematicContacts: 0
  m_UseAutoMass: 0
  m_Mass: 1
  m_LinearDrag: 0
  m_AngularDrag: 0.05
  m_GravityScale: 0
  m_Material: {fileID: 0}
  m_Interpolate: 0
  m_SleepingMode: 1
  m_CollisionDetection: 0
  m_Constraints: 0
--- !u!1001 &1571560720522341364
PrefabInstance:
  m_ObjectHideFlags: 0
  serializedVersion: 2
  m_Modification:
    m_TransformParent: {fileID: 0}
    m_Modifications:
    - target: {fileID: 1245372957964714711, guid: 35369fcfed45c2e42b2c1d1ba3e47c87,
        type: 3}
      propertyPath: m_Enabled
      value: 1
      objectReference: {fileID: 0}
    - target: {fileID: 1364021498455313812, guid: 35369fcfed45c2e42b2c1d1ba3e47c87,
        type: 3}
      propertyPath: m_Name
      value: Formacion3
      objectReference: {fileID: 0}
    - target: {fileID: 3423531599458498026, guid: 35369fcfed45c2e42b2c1d1ba3e47c87,
        type: 3}
      propertyPath: m_TagString
      value: Enemy
      objectReference: {fileID: 0}
    - target: {fileID: 3545692644321249296, guid: 35369fcfed45c2e42b2c1d1ba3e47c87,
        type: 3}
      propertyPath: m_LocalPosition.x
      value: 0
      objectReference: {fileID: 0}
    - target: {fileID: 3545692645802677134, guid: 35369fcfed45c2e42b2c1d1ba3e47c87,
        type: 3}
      propertyPath: m_LocalPosition.x
      value: 0
      objectReference: {fileID: 0}
    - target: {fileID: 3545692645815749056, guid: 35369fcfed45c2e42b2c1d1ba3e47c87,
        type: 3}
      propertyPath: m_LocalPosition.x
      value: 0
      objectReference: {fileID: 0}
    - target: {fileID: 4143159406530171414, guid: 35369fcfed45c2e42b2c1d1ba3e47c87,
        type: 3}
      propertyPath: m_TagString
      value: Enemy
      objectReference: {fileID: 0}
    - target: {fileID: 4143159406585186392, guid: 35369fcfed45c2e42b2c1d1ba3e47c87,
        type: 3}
      propertyPath: m_TagString
      value: Enemy
      objectReference: {fileID: 0}
    - target: {fileID: 4614813705428015836, guid: 35369fcfed45c2e42b2c1d1ba3e47c87,
        type: 3}
      propertyPath: m_TagString
      value: Enemy
      objectReference: {fileID: 0}
    - target: {fileID: 4614813705551249554, guid: 35369fcfed45c2e42b2c1d1ba3e47c87,
        type: 3}
      propertyPath: m_TagString
      value: Enemy
      objectReference: {fileID: 0}
    - target: {fileID: 5348407916591367886, guid: 35369fcfed45c2e42b2c1d1ba3e47c87,
        type: 3}
      propertyPath: m_TagString
      value: Enemy
      objectReference: {fileID: 0}
    - target: {fileID: 6103103242869025208, guid: 35369fcfed45c2e42b2c1d1ba3e47c87,
        type: 3}
      propertyPath: m_TagString
      value: Enemy
      objectReference: {fileID: 0}
    - target: {fileID: 6103103242922013686, guid: 35369fcfed45c2e42b2c1d1ba3e47c87,
        type: 3}
      propertyPath: m_TagString
      value: Enemy
      objectReference: {fileID: 0}
    - target: {fileID: 8766591360828376989, guid: 35369fcfed45c2e42b2c1d1ba3e47c87,
        type: 3}
      propertyPath: m_LocalPosition.x
      value: 3.0340462
      objectReference: {fileID: 0}
    - target: {fileID: 8766591360828376989, guid: 35369fcfed45c2e42b2c1d1ba3e47c87,
        type: 3}
      propertyPath: m_LocalPosition.y
      value: 0.2445117
      objectReference: {fileID: 0}
    - target: {fileID: 8766591360828376989, guid: 35369fcfed45c2e42b2c1d1ba3e47c87,
        type: 3}
      propertyPath: m_LocalPosition.z
      value: 0
      objectReference: {fileID: 0}
    - target: {fileID: 8766591360828376989, guid: 35369fcfed45c2e42b2c1d1ba3e47c87,
        type: 3}
      propertyPath: m_LocalRotation.x
      value: 0
      objectReference: {fileID: 0}
    - target: {fileID: 8766591360828376989, guid: 35369fcfed45c2e42b2c1d1ba3e47c87,
        type: 3}
      propertyPath: m_LocalRotation.y
      value: 0
      objectReference: {fileID: 0}
    - target: {fileID: 8766591360828376989, guid: 35369fcfed45c2e42b2c1d1ba3e47c87,
        type: 3}
      propertyPath: m_LocalRotation.z
      value: 0
      objectReference: {fileID: 0}
    - target: {fileID: 8766591360828376989, guid: 35369fcfed45c2e42b2c1d1ba3e47c87,
        type: 3}
      propertyPath: m_LocalRotation.w
      value: 1
      objectReference: {fileID: 0}
    - target: {fileID: 8766591360828376989, guid: 35369fcfed45c2e42b2c1d1ba3e47c87,
        type: 3}
      propertyPath: m_RootOrder
      value: 0
      objectReference: {fileID: 0}
    - target: {fileID: 8766591360828376989, guid: 35369fcfed45c2e42b2c1d1ba3e47c87,
        type: 3}
      propertyPath: m_LocalEulerAnglesHint.x
      value: 0
      objectReference: {fileID: 0}
    - target: {fileID: 8766591360828376989, guid: 35369fcfed45c2e42b2c1d1ba3e47c87,
        type: 3}
      propertyPath: m_LocalEulerAnglesHint.y
      value: 0
      objectReference: {fileID: 0}
    - target: {fileID: 8766591360828376989, guid: 35369fcfed45c2e42b2c1d1ba3e47c87,
        type: 3}
      propertyPath: m_LocalEulerAnglesHint.z
      value: 0
      objectReference: {fileID: 0}
    - target: {fileID: 8860374980638595598, guid: 35369fcfed45c2e42b2c1d1ba3e47c87,
        type: 3}
      propertyPath: m_TagString
      value: Enemy
      objectReference: {fileID: 0}
    - target: {fileID: 8860374980725063744, guid: 35369fcfed45c2e42b2c1d1ba3e47c87,
        type: 3}
      propertyPath: m_TagString
      value: Enemy
      objectReference: {fileID: 0}
    m_RemovedComponents: []
  m_SourcePrefab: {fileID: 100100000, guid: 35369fcfed45c2e42b2c1d1ba3e47c87, type: 3}
--- !u!1 &3226676296777167193 stripped
GameObject:
  m_CorrespondingSourceObject: {fileID: 4109599363978992301, guid: 35369fcfed45c2e42b2c1d1ba3e47c87,
    type: 3}
  m_PrefabInstance: {fileID: 1571560720522341364}
  m_PrefabAsset: {fileID: 0}
--- !u!1 &3226676298570576009 stripped
GameObject:
  m_CorrespondingSourceObject: {fileID: 4109599365482961789, guid: 35369fcfed45c2e42b2c1d1ba3e47c87,
    type: 3}
  m_PrefabInstance: {fileID: 1571560720522341364}
  m_PrefabAsset: {fileID: 0}
--- !u!1 &3226676298514442951 stripped
GameObject:
  m_CorrespondingSourceObject: {fileID: 4109599365462540595, guid: 35369fcfed45c2e42b2c1d1ba3e47c87,
    type: 3}
  m_PrefabInstance: {fileID: 1571560720522341364}
  m_PrefabAsset: {fileID: 0}
